<?xml version="1.0" encoding="UTF-8" standalone="no"?>
<svg
   width="3828.0015"
   height="3827.998"
   viewBox="0 0 3828.0015 3827.998"
   version="1.1"
   xml:space="preserve"
   style="clip-rule:evenodd;fill-rule:evenodd;stroke-linecap:round;stroke-linejoin:round;stroke-miterlimit:1.5"
   id="svg419"
   sodipodi:docname="Logo_CaBr2_original_ohneSchatten.svg"
   inkscape:version="1.1.1 (3bf5ae0d25, 2021-09-20)"
   inkscape:export-filename="C:\Users\Katrin\Desktop\Logo_CaBr2_original_ohneSchatten.png"
   inkscape:export-xdpi="96"
   inkscape:export-ydpi="96"
   xmlns:inkscape="http://www.inkscape.org/namespaces/inkscape"
   xmlns:sodipodi="http://sodipodi.sourceforge.net/DTD/sodipodi-0.dtd"
   xmlns="http://www.w3.org/2000/svg"
   xmlns:svg="http://www.w3.org/2000/svg"><sodipodi:namedview
   id="namedview421"
   pagecolor="#ffffff"
   bordercolor="#999999"
   borderopacity="1"
   inkscape:pageshadow="0"
   inkscape:pageopacity="0"
   inkscape:pagecheckerboard="0"
   showgrid="false"
   inkscape:zoom="0.043453965"
   inkscape:cx="5672.6699"
   inkscape:cy="2980.1653"
   inkscape:window-width="1920"
   inkscape:window-height="1001"
   inkscape:window-x="-9"
   inkscape:window-y="-9"
   inkscape:window-maximized="1"
   inkscape:current-layer="svg419"
   showguides="true"
   inkscape:object-paths="false" />
    <g
   id="Rahmen"
   transform="matrix(0.949415,0,0,0.949559,20.002275,20.000561)">
        <path
   d="m 3989.83,210.624 c 0,-55.861 -22.2,-109.435 -61.71,-148.934 -39.5,-39.5 -93.08,-61.691 -148.95,-61.691 H 210.654 c -55.869,0 -109.451,22.191 -148.956,61.691 -39.506,39.499 -61.7,93.073 -61.7,148.934 V 3778.6 c 0,55.86 22.194,109.43 61.7,148.93 39.505,39.5 93.087,61.69 148.956,61.69 H 3779.17 c 55.87,0 109.45,-22.19 148.95,-61.69 39.51,-39.5 61.71,-93.07 61.71,-148.93 z"
   style="fill:#6c6c75"
   id="path216" />
        <path
   d="m 4010.89,210.624 c 0,-61.448 -24.41,-120.378 -67.87,-163.828 -43.46,-43.449 -102.4,-67.859 -163.85,-67.859 H 210.654 c -61.456,0 -120.396,24.41 -163.852,67.859 -43.456,43.45 -67.87,102.38 -67.87,163.828 V 3778.6 c 0,61.44 24.414,120.37 67.87,163.82 43.456,43.45 102.396,67.86 163.852,67.86 H 3779.17 c 61.45,0 120.39,-24.41 163.85,-67.86 43.46,-43.45 67.87,-102.38 67.87,-163.82 z m -42.13,0 V 3778.6 c 0,50.27 -19.97,98.49 -55.53,134.04 -35.56,35.55 -83.78,55.52 -134.06,55.52 H 210.654 c -50.282,0 -98.506,-19.97 -134.061,-55.52 C 41.038,3877.09 21.064,3828.87 21.064,3778.6 V 210.624 c 0,-50.275 19.974,-98.491 55.529,-134.041 35.555,-35.55 83.779,-55.521 134.061,-55.521 H 3779.17 c 50.28,0 98.5,19.971 134.06,55.521 35.56,35.55 55.53,83.766 55.53,134.041 z"
   id="path218" />
    </g>
    
    <path
   d="m 1508.7024,543.13886 -10.22,843.27604 -437.48,1032.76 616.99,27.72 1094.85,-28.75 -429.3,-1032.63 2.04,-845.57004 -836.88,3.194"
   style="fill:#ffffff"
   id="path232" /><path
   id="Flüssigkeit"
   d="m 2719.6024,2281.7949 386.51,912.54 c 158.67,344.13 -175.28,345.35 -175.28,345.35 l -2020.30502,-0.32 c -311.242,-27.43 -194.394,-287.51 -194.394,-287.51 l 392.33902,-928.89 c 0,0 273.01,65.82 409.29,35.32 141.92,-31.76 336.65,-51.42 469.94,-28.79 157.19,26.69 194.15,42.83 393.53,-9.95 197.91,-52.38 338.37,-37.75 338.37,-37.75 z"
   style="fill:#f39100" /><g
   id="Blasen"
   transform="translate(-12.097625,-73.425139)">
            <g
   transform="matrix(1.28814,0,0,1.28814,-635.614,-661.087)"
   id="g237">
                <circle
   cx="2267.5901"
   cy="2246.6101"
   r="84.518997"
   style="fill:url(#_Linear1);stroke:#f39100;stroke-width:11.64px"
   id="circle235" />
            </g>
            <g
   transform="matrix(0.924511,0,0,0.924511,201.321,-217.891)"
   id="g241">
                <circle
   cx="2267.5901"
   cy="2246.6101"
   r="84.518997"
   style="fill:url(#_Linear2);stroke:#f39100;stroke-width:16.22px"
   id="circle239" />
            </g>
            <g
   transform="matrix(1.08508,0,0,1.08508,-589.346,-1187.04)"
   id="g245">
                <circle
   cx="2267.5901"
   cy="2246.6101"
   r="84.518997"
   style="fill:url(#_Linear3);stroke:#f39100;stroke-width:13.82px"
   id="circle243" />
            </g>
            <g
   transform="matrix(1.41638,0,0,1.41638,-1705.14,-1061.71)"
   id="g249">
                <circle
   cx="2267.5901"
   cy="2246.6101"
   r="84.518997"
   style="fill:url(#_Linear4);stroke:#f39100;stroke-width:10.59px"
   id="circle247" />
            </g>
            <g
   transform="matrix(0.808929,0,0,0.808929,147.751,248.031)"
   id="g253">
                <circle
   cx="2267.5901"
   cy="2246.6101"
   r="84.518997"
   style="fill:url(#_Linear5);stroke:#f39100;stroke-width:18.54px"
   id="circle251" />
            </g>
            <g
   transform="matrix(1.21709,0,0,1.21709,-785.308,-999.759)"
   id="g257">
                <circle
   cx="2267.5901"
   cy="2246.6101"
   r="84.518997"
   style="fill:url(#_Linear6);stroke:#f39100;stroke-width:12.32px"
   id="circle255" />
            </g>
            <g
   transform="matrix(0.248385,0,0,0.248385,1471,1736.89)"
   id="g261">
                <circle
   cx="2267.5901"
   cy="2246.6101"
   r="84.518997"
   style="fill:url(#_Linear7);stroke:#f39100;stroke-width:60.39px"
   id="circle259" />
            </g>
            <g
   transform="matrix(0.702636,0,0,0.702636,114.405,-26.5636)"
   id="g265">
                <circle
   cx="2267.5901"
   cy="2246.6101"
   r="84.518997"
   style="fill:url(#_Linear8);stroke:#f39100;stroke-width:21.35px"
   id="circle263" />
            </g>
            <g
   transform="matrix(0.530986,0,0,0.530986,923.302,-209.748)"
   id="g269">
                <circle
   cx="2267.5901"
   cy="2246.6101"
   r="84.518997"
   style="fill:url(#_Linear9);stroke:#f39100;stroke-width:28.25px"
   id="circle267" />
            </g>
            <g
   transform="matrix(0.530986,0,0,0.530986,725.26,-308.769)"
   id="g273">
                <circle
   cx="2267.5901"
   cy="2246.6101"
   r="84.518997"
   style="fill:url(#_Linear10);stroke:#f39100;stroke-width:28.25px"
   id="circle271" />
            </g>
            <g
   transform="matrix(0.530986,0,0,0.530986,830.35,274.496)"
   id="g277">
                <circle
   cx="2267.5901"
   cy="2246.6101"
   r="84.518997"
   style="fill:url(#_Linear11);stroke:#f39100;stroke-width:28.25px"
   id="circle275" />
            </g>
            <g
   transform="matrix(0.399947,0,0,0.399947,847.697,102.371)"
   id="g281">
                <circle
   cx="2267.5901"
   cy="2246.6101"
   r="84.518997"
   style="fill:url(#_Linear12);stroke:#f39100;stroke-width:37.51px"
   id="circle279" />
            </g>
        </g><g
   transform="matrix(1.1273,0,0,1,-258.34362,-73.425139)"
   id="g286">
            <path
   d="m 1518.13,610.55 h 832.5"
   style="fill:none;stroke:#000000;stroke-width:93.85px"
   id="path284" />
        </g><path
   d="m 2091.0524,3541.4149 -1120.35002,0.21 c -97.503,0.25 -389.565,-14.19 -228.347,-354.06 l 716.78702,-1695.34 c 43.09,-110.78 46.9,-162.09 46.89,-215.66 -0.01,-69.12 0,-739.44004 0,-739.44004"
   style="fill:none;stroke:#000000;stroke-width:40px"
   id="path288" /><g
   transform="matrix(-1,0,0,1,3857.0224,-73.425139)"
   id="g292">
            <path
   d="m 2103.15,3614.84 -1120.35,0.21 c -97.503,0.25 -389.565,-14.19 -228.347,-354.06 L 1471.24,1565.65 c 43.09,-110.78 46.9,-162.09 46.89,-215.66 -0.01,-69.12 0,-739.44 0,-739.44"
   style="fill:none;stroke:#000000;stroke-width:40px"
   id="path290" />
        </g>
    <g
   id="Schrift"
   transform="translate(-12.097625,-73.425139)">
        <g
   transform="translate(0,12.9615)"
   id="g297">
            <text
   x="1405"
   y="1873"
   style="font-size:110.288px;font-family:FranklinGothic-Demi, 'Franklin Gothic Demi', sans-serif"
   id="text295">500</text>
        </g>
        <g
   transform="translate(0,528.961)"
   id="g301">
            <text
   x="1405"
   y="1873"
   style="font-size:110.288px;font-family:FranklinGothic-Demi, 'Franklin Gothic Demi', sans-serif"
   id="text299">400</text>
        </g>
        <g
   transform="translate(0,1042.96)"
   id="g305">
            <text
   x="1405"
   y="1873"
   style="font-size:110.288px;font-family:FranklinGothic-Demi, 'Franklin Gothic Demi', sans-serif"
   id="text303">300</text>
        </g>
        <g
   transform="translate(0,1427.96)"
   id="g309">
            <text
   x="1405"
   y="1873"
   style="font-size:110.288px;font-family:FranklinGothic-Demi, 'Franklin Gothic Demi', sans-serif"
   id="text307">200</text>
        </g>
        <g
   transform="matrix(4.34603,0,0,4.72877,-4318.32,-5556.03)"
   id="g321">
            <text
   x="1405"
   y="1873"
   style="font-size:110.288px;font-family:FranklinGothic-Demi, 'Franklin Gothic Demi', sans-serif;fill:#ffffff;stroke:#000000;stroke-width:3.3px;stroke-linejoin:miter;stroke-miterlimit:2"
   id="text311">C</text>
            <text
   x="1474.2"
   y="1873"
   style="font-size:95.162px;font-family:FranklinGothic-Demi, 'Franklin Gothic Demi', sans-serif;fill:#ffffff;stroke:#000000;stroke-width:3.3px;stroke-linejoin:miter;stroke-miterlimit:2"
   id="text313">a</text>
            <text
   x="1525.73"
   y="1873"
   style="font-size:110.288px;font-family:FranklinGothic-Demi, 'Franklin Gothic Demi', sans-serif;fill:#ffffff;stroke:#000000;stroke-width:3.3px;stroke-linejoin:miter;stroke-miterlimit:2"
   id="text315">B</text>
            <text
   x="1597.5699"
   y="1873"
   style="font-size:95.162px;font-family:FranklinGothic-Demi, 'Franklin Gothic Demi', sans-serif;stroke:#000000;stroke-width:2.2px;stroke-linejoin:miter;stroke-miterlimit:2"
   id="text317">r</text>
            <text
   x="1624.52"
   y="1897.74"
   style="font-size:54.983px;font-family:FranklinGothic-Demi, 'Franklin Gothic Demi', sans-serif;fill:#ffffff;stroke:#000000;stroke-width:2.42px;stroke-linejoin:miter;stroke-miterlimit:2"
   id="text319">2</text>
        </g>
        <g
   id="Skala">
            <path
   d="m 1612,3262 h 128"
   style="fill:none;stroke:#000000;stroke-width:20px"
   id="path323" />
            <path
   d="m 1612,2877 h 128"
   style="fill:none;stroke:#000000;stroke-width:20px"
   id="path325" />
            <path
   d="m 1612,1847 h 128 v 1415 -898.5"
   style="fill:none;stroke:#000000;stroke-width:20px"
   id="path327" />
            <path
   d="m 1612,2363 128,0.5"
   style="fill:none;stroke:#000000;stroke-width:20px"
   id="path329" />
        </g>
    </g>
    <defs
   id="defs417">
        <linearGradient
   id="_Linear1"
   x1="0"
   y1="0"
   x2="1"
   y2="0"
   gradientUnits="userSpaceOnUse"
   gradientTransform="matrix(1007.32,0,0,1502.47,1386.92,1590.51)"><stop
     offset="0"
     style="stop-color:rgb(255,216,0);stop-opacity:1"
     id="stop333" /><stop
     offset="0.48"
     style="stop-color:rgb(252,197,0);stop-opacity:1"
     id="stop335" /><stop
     offset="1"
     style="stop-color:rgb(243,145,0);stop-opacity:1"
     id="stop337" /></linearGradient>
        <linearGradient
   id="_Linear2"
   x1="0"
   y1="0"
   x2="1"
   y2="0"
   gradientUnits="userSpaceOnUse"
   gradientTransform="matrix(1007.32,0,0,1502.47,1386.92,1590.51)"><stop
     offset="0"
     style="stop-color:rgb(255,216,0);stop-opacity:1"
     id="stop340" /><stop
     offset="0.48"
     style="stop-color:rgb(252,197,0);stop-opacity:1"
     id="stop342" /><stop
     offset="1"
     style="stop-color:rgb(243,145,0);stop-opacity:1"
     id="stop344" /></linearGradient>
        <linearGradient
   id="_Linear3"
   x1="0"
   y1="0"
   x2="1"
   y2="0"
   gradientUnits="userSpaceOnUse"
   gradientTransform="matrix(1007.32,0,0,1502.47,1386.92,1590.51)"><stop
     offset="0"
     style="stop-color:rgb(255,216,0);stop-opacity:1"
     id="stop347" /><stop
     offset="0.48"
     style="stop-color:rgb(252,197,0);stop-opacity:1"
     id="stop349" /><stop
     offset="1"
     style="stop-color:rgb(243,145,0);stop-opacity:1"
     id="stop351" /></linearGradient>
        <linearGradient
   id="_Linear4"
   x1="0"
   y1="0"
   x2="1"
   y2="0"
   gradientUnits="userSpaceOnUse"
   gradientTransform="matrix(1007.32,0,0,1502.47,1386.92,1590.51)"><stop
     offset="0"
     style="stop-color:rgb(255,216,0);stop-opacity:1"
     id="stop354" /><stop
     offset="0.48"
     style="stop-color:rgb(252,197,0);stop-opacity:1"
     id="stop356" /><stop
     offset="1"
     style="stop-color:rgb(243,145,0);stop-opacity:1"
     id="stop358" /></linearGradient>
        <linearGradient
   id="_Linear5"
   x1="0"
   y1="0"
   x2="1"
   y2="0"
   gradientUnits="userSpaceOnUse"
   gradientTransform="matrix(1007.32,0,0,1502.47,1386.92,1590.51)"><stop
     offset="0"
     style="stop-color:rgb(255,216,0);stop-opacity:1"
     id="stop361" /><stop
     offset="0.48"
     style="stop-color:rgb(252,197,0);stop-opacity:1"
     id="stop363" /><stop
     offset="1"
     style="stop-color:rgb(243,145,0);stop-opacity:1"
     id="stop365" /></linearGradient>
        <linearGradient
   id="_Linear6"
   x1="0"
   y1="0"
   x2="1"
   y2="0"
   gradientUnits="userSpaceOnUse"
   gradientTransform="matrix(1007.32,0,0,1502.47,1386.92,1590.51)"><stop
     offset="0"
     style="stop-color:rgb(255,216,0);stop-opacity:1"
     id="stop368" /><stop
     offset="0.48"
     style="stop-color:rgb(252,197,0);stop-opacity:1"
     id="stop370" /><stop
     offset="1"
     style="stop-color:rgb(243,145,0);stop-opacity:1"
     id="stop372" /></linearGradient>
        <linearGradient
   id="_Linear7"
   x1="0"
   y1="0"
   x2="1"
   y2="0"
   gradientUnits="userSpaceOnUse"
   gradientTransform="matrix(1007.32,0,0,1502.47,1386.92,1590.51)"><stop
     offset="0"
     style="stop-color:rgb(255,216,0);stop-opacity:1"
     id="stop375" /><stop
     offset="0.48"
     style="stop-color:rgb(252,197,0);stop-opacity:1"
     id="stop377" /><stop
     offset="1"
     style="stop-color:rgb(243,145,0);stop-opacity:1"
     id="stop379" /></linearGradient>
        <linearGradient
   id="_Linear8"
   x1="0"
   y1="0"
   x2="1"
   y2="0"
   gradientUnits="userSpaceOnUse"
   gradientTransform="matrix(1007.32,0,0,1502.47,1386.92,1590.51)"><stop
     offset="0"
     style="stop-color:rgb(255,216,0);stop-opacity:1"
     id="stop382" /><stop
     offset="0.48"
     style="stop-color:rgb(252,197,0);stop-opacity:1"
     id="stop384" /><stop
     offset="1"
     style="stop-color:rgb(243,145,0);stop-opacity:1"
     id="stop386" /></linearGradient>
        <linearGradient
   id="_Linear9"
   x1="0"
   y1="0"
   x2="1"
   y2="0"
   gradientUnits="userSpaceOnUse"
   gradientTransform="matrix(1007.32,0,0,1502.47,1386.92,1590.51)"><stop
     offset="0"
     style="stop-color:rgb(255,216,0);stop-opacity:1"
     id="stop389" /><stop
     offset="0.48"
     style="stop-color:rgb(252,197,0);stop-opacity:1"
     id="stop391" /><stop
     offset="1"
     style="stop-color:rgb(243,145,0);stop-opacity:1"
     id="stop393" /></linearGradient>
        <linearGradient
   id="_Linear10"
   x1="0"
   y1="0"
   x2="1"
   y2="0"
   gradientUnits="userSpaceOnUse"
   gradientTransform="matrix(1007.32,0,0,1502.47,1386.92,1590.51)"><stop
     offset="0"
     style="stop-color:rgb(255,216,0);stop-opacity:1"
     id="stop396" /><stop
     offset="0.48"
     style="stop-color:rgb(252,197,0);stop-opacity:1"
     id="stop398" /><stop
     offset="1"
     style="stop-color:rgb(243,145,0);stop-opacity:1"
     id="stop400" /></linearGradient>
        <linearGradient
   id="_Linear11"
   x1="0"
   y1="0"
   x2="1"
   y2="0"
   gradientUnits="userSpaceOnUse"
   gradientTransform="matrix(1007.32,0,0,1502.47,1386.92,1590.51)"><stop
     offset="0"
     style="stop-color:rgb(255,216,0);stop-opacity:1"
     id="stop403" /><stop
     offset="0.48"
     style="stop-color:rgb(252,197,0);stop-opacity:1"
     id="stop405" /><stop
     offset="1"
     style="stop-color:rgb(243,145,0);stop-opacity:1"
     id="stop407" /></linearGradient>
        <linearGradient
   id="_Linear12"
   x1="0"
   y1="0"
   x2="1"
   y2="0"
   gradientUnits="userSpaceOnUse"
   gradientTransform="matrix(1007.32,0,0,1502.47,1386.92,1590.51)"><stop
     offset="0"
     style="stop-color:rgb(255,216,0);stop-opacity:1"
     id="stop410" /><stop
     offset="0.48"
     style="stop-color:rgb(252,197,0);stop-opacity:1"
     id="stop412" /><stop
     offset="1"
     style="stop-color:rgb(243,145,0);stop-opacity:1"
     id="stop414" /></linearGradient>
    
        
        
        
        
        
        
    </defs>
</svg>
